Images and spot coordinates
…
Spot transformation

Let’s load some spot coordinates for the H&E image that we have.

# get example coordinate file
cordinatefile <- system.file("extdata/mousebrain/spatial", 
                             "tissue_positions_list.csv", 
                             package = "STUtility2")

# Load coordinates
xy <- LoadSpatialCoordinates(coordinatefiles = cordinatefile, verbose = T)
xy

# A tibble: 4,992 × 7
   barcode            selected     y     x pxl_col_in_fullres pxl_row_…¹ sampl…²
   <chr>                 <int> <int> <int>              <int>      <int>   <int>
 1 ACGCCTGACACGCGCT-1        0     0     0               1796       2507       1
 2 TACCGATCCAACACTT-1        0     1     1               1974       2609       1
 3 ATTAAAGCGGACGAGC-1        0     0     2               1796       2711       1
 4 GATAAGGGACGATTAG-1        0     1     3               1975       2813       1
 5 GTGCAAATCACCAATA-1        0     0     4               1797       2916       1
 6 TGTTGGCTGGCGGAAG-1        0     1     5               1975       3018       1
 7 GCATCCTCTCCTATTA-1        0     0     6               1797       3121       1
 8 GCGAGGGACTGCTAGA-1        0     1     7               1975       3223       1
 9 TGGTACCGGCACAGCC-1        0     0     8               1797       3325       1
10 GCGCGTTTAAATCGTA-1        0     1     9               1976       3428       1
# … with 4,982 more rows, and abbreviated variable names ¹​pxl_row_in_fullres,
#   ²​sampleID
…
