Create dataset • semla
…
semla provides LoadSpatialCoordinates to
make the task a little easier:

coordinates <- LoadSpatialCoordinates(coordinatefiles = spotfiles, verbose = FALSE) |> 
  select(barcode, pxl_row_in_fullres, pxl_col_in_fullres, sampleID)

coordinates

## # A tibble: 5,164 × 4
##    barcode            pxl_row_in_fullres pxl_col_in_fullres sampleID
##    <chr>                           <int>              <int>    <int>
##  1 CATACAAAGCCGAACC-1               4117               6086        1
##  2 CTGAGCAAGTAACAAG-1               4472               5062        1
##  3 GGGTACCCACGGTCCT-1               4294               5164        1
##  4 ACGGAATTTAGCAAAT-1               4472               5266        1
##  5 GGGCGGTCCTATTGTC-1               4294               5369        1
##  6 ATGTTACGAGCAATAC-1               4472               5471        1
##  7 AACCATGGGATCGCTA-1               4294               5574        1
##  8 TCGCATCCCTAAGTGT-1               4473               5676        1
##  9 ACTTAGTACGACAAGA-1               4295               5778        1
## 10 GAGCTCTCGGACCTAA-1               4473               5881        1
## # … with 5,154 more rows
…
