Images and spot coordinates • semla
…
Spot transformation

Let’s load some spot coordinates for the H&E image that we
have.

# get example coordinate file
cordinatefile <- system.file("extdata/mousebrain/spatial", 
                             "tissue_positions_list.csv", 
                             package = "semla")

# Load coordinates
xy <- LoadSpatialCoordinates(coordinatefiles = cordinatefile, verbose = T)
xy

## # A tibble: 2,560 × 7
##    barcode            selected     y     x pxl_row_in_fullres pxl_col_…¹ sampl…²
##    <chr>                 <int> <int> <int>              <int>      <int>   <int>
##  1 CATACAAAGCCGAACC-1        1    13    35               4117       6086       1
##  2 CTGAGCAAGTAACAAG-1        1    15    25               4472       5062       1
##  3 GGGTACCCACGGTCCT-1        1    14    26               4294       5164       1
##  4 ACGGAATTTAGCAAAT-1        1    15    27               4472       5266       1
##  5 GGGCGGTCCTATTGTC-1        1    14    28               4294       5369       1
##  6 ATGTTACGAGCAATAC-1        1    15    29               4472       5471       1
##  7 AACCATGGGATCGCTA-1        1    14    30               4294       5574       1
##  8 TCGCATCCCTAAGTGT-1        1    15    31               4473       5676       1
##  9 ACTTAGTACGACAAGA-1        1    14    32               4295       5778       1
## 10 GAGCTCTCGGACCTAA-1        1    15    33               4473       5881       1
## # … with 2,550 more rows, and abbreviated variable names ¹​pxl_col_in_fullres,
## #   ²​sampleID
…
