Non-negative matrix factorization • semla
…
# Convert to long format and group data by factor
gene_loadings_sorted <- nmf_loadings |> 
  as.data.frame() |> 
  tibble::rownames_to_column(var = "gene") |> 
  as_tibble() |> 
  tidyr::pivot_longer(all_of(colnames(nmf_loadings)), names_to = "fctr", values_to = "loading") |> 
  mutate(fctr = factor(fctr, colnames(nmf_loadings))) |> 
  group_by(fctr) |> 
  arrange(fctr, -loading)

# Extract top 10 genes per factor
gene_loadings_sorted |> 
  slice_head(n = 10)

## # A tibble: 220 × 3
## # Groups:   fctr [22]
##    gene    fctr  loading
##    <chr>   <fct>   <dbl>
##  1 Penk    NMF_1 0.00757
##  2 Pcp4    NMF_1 0.00753
##  3 Ppp1r1b NMF_1 0.00721
##  4 Gpr88   NMF_1 0.00650
##  5 Hpca    NMF_1 0.00639
##  6 Ppp3ca  NMF_1 0.00608
##  7 Pde1b   NMF_1 0.00608
##  8 Arpp21  NMF_1 0.00598
##  9 Nrgn    NMF_1 0.00585
## 10 Pde10a  NMF_1 0.00582
## # ℹ 210 more rows
…
library(gprofiler2)

# Get gene sets
gene_set_nmf_1 <- gene_loadings_sorted |> 
  filter(fctr == "NMF_1") |> 
  slice_head(n = 10)

# Run FEA
fea_results_nmf_1 <- gost(query = gene_set_nmf_1$gene, ordered_query = TRUE, organism = "mmusculus", sources = "GO:BP")$result |> 
  as_tibble()

# Look at results
fea_results_nmf_1 |> select(p_value, term_size, query_size, intersection_size, term_name)

## # A tibble: 23 × 5
##      p_value term_size query_size intersection_size term_name                   
##        <dbl>     <int>      <int>             <int> <chr>                       
##  1 0.0000825        36          7                 3 response to amphetamine     
##  2 0.000265        250          7                 4 locomotory behavior         
##  3 0.000301        188          9                 4 learning                    
##  4 0.000302         55          7                 3 response to amine           
##  5 0.000384       1329          8                 6 response to abiotic stimulus
##  6 0.000885        417          6                 4 response to salt            
##  7 0.00214         760          9                 5 behavior                    
##  8 0.00264         324          9                 4 learning or memory          
##  9 0.00342         475          7                 4 response to radiation       
## 10 0.00401         360          9                 4 cognition                   
## # ℹ 13 more rows
…
