Spatial autocorrelation • semla
…
## 

## ℹ Sample 1:

## →   Cleaned out spots with 0 adjacent neighbors

## →   Computed feature lag expression

## →   Computed feature spatial autocorrelation scores

## ✔   Returning results

spatgenes[[1]]

## # A tibble: 170 × 2
##    gene     cor
##    <chr>  <dbl>
##  1 Mbp    0.870
##  2 Nrgn   0.857
##  3 Cck    0.813
##  4 Olfm1  0.798
##  5 Slc6a3 0.798
##  6 Trh    0.770
##  7 Mobp   0.763
##  8 Th     0.757
##  9 Crym   0.756
## 10 Tmsb4x 0.753
## # ℹ 160 more rows
…
