Apply transformation to paired image and coordinates — CoordAndImageTransform • semla
…
# get example coordinate file
coordinatefile <- system.file("extdata",
                              "mousebrain/spatial/tissue_positions_list.csv",
                              package = "semla")

# Load coordinates
xy <- LoadSpatialCoordinates(coordinatefiles = coordinatefile)
#> ℹ Loading coordinates:
#> →   Finished loading coordinates for sample 1
#> ℹ Collected coordinates for 2560 spots.
xy
#> # A tibble: 2,560 × 7
#>    barcode   selected     y     x pxl_row_in_fullres pxl_col_in_fullres sampleID
#>    <chr>        <int> <int> <int>              <int>              <int>    <int>
#>  1 CATACAAA…        1    13    35               4117               6086        1
#>  2 CTGAGCAA…        1    15    25               4472               5062        1
#>  3 GGGTACCC…        1    14    26               4294               5164        1
#>  4 ACGGAATT…        1    15    27               4472               5266        1
#>  5 GGGCGGTC…        1    14    28               4294               5369        1
#>  6 ATGTTACG…        1    15    29               4472               5471        1
#>  7 AACCATGG…        1    14    30               4294               5574        1
#>  8 TCGCATCC…        1    15    31               4473               5676        1
#>  9 ACTTAGTA…        1    14    32               4295               5778        1
#> 10 GAGCTCTC…        1    15    33               4473               5881        1
#> # ℹ 2,550 more rows
…
